{
    "vimlsp.diagnostic.enable": true,
    "vimlsp.indexes.runtimepath": true,
    "vimlsp.suggest.fromRuntimepath": true,
    "vimlsp.indexes.count": 8,
    "vimlsp.indexes.gap": 1,
    "vimlsp.indexes.projectRootPatterns": [".git", "init_vim", "autoload", "plugin"],
    "metals.statusBarEnabled": true
}
